{
  "title": "Gimbalabs Video Updates",
  "about": "Live-stream updates from the Gimbalabs team.",
  "weekly": [
    {
      "date": "2022-03-24",
      "number": 49,
      "youtubeId": "-owVoon35MA",
      "tags": ["We are back!"]
    },
    {
      "date": "2022-02-24",
      "number": 48,
      "youtubeId": "QQu8esZzWL0",
      "tags": ["War + Infrastructure"]
    },
    {
      "date": "2022-02-10",
      "number": 47,
      "youtubeId": "zb5rgizgxQ4",
      "tags": ["Joey's Hot Sauce Drop!"]
    },
    {
      "date": "2022-01-27",
      "number": 46,
      "youtubeId": "NrAV6VpCJzI",
      "tags": ["Inspiring broad development through story-telling."]
    },
    {
      "date": "2022-01-13",
      "number": 45,
      "youtubeId": "07gG_GiI-yU",
      "tags": ["Password Chaos Series 2, Gimbal Tokens, Project-Based Learning and Joey's Hot Sauce"]
    },
    {
      "date": "2021-12-16",
      "number": 44,
      "youtubeId": "mR820aGOE1o",
      "tags": ["Introducing the new gimbalabs.com!"]
    },
    {
      "date": "2021-12-02",
      "number": 43,
      "youtubeId": "47L6e-n1dpE",
      "tags": ["Chaos incoming"]
    },
    {
      "date": "2021-11-18",
      "number": 42,
      "youtubeId": "rtxVp-dwkZM",
      "tags": ["It's number 42!"]
    },
    {
      "date": "2021-11-11",
      "number": 41,
      "youtubeId": "oTzr8jitdwA",
      "tags": ["Building technical, community, and educational infrastructure"]
    },
    {
      "date": "2021-11-05",
      "number": 40,
      "youtubeId": "M6mNhoa8Th4",
      "tags": ["How can you get involved at Gimbalabs?"]
    },
    {
      "date": "2021-10-29",
      "number": 39,
      "youtubeId": "UOzrQvOYJQQ",
      "tags": ["What does our Catalyst funding mean for you?"]
    },
    {
      "date": "2021-10-22",
      "number": 38,
      "youtubeId": "puM7i9GcI34",
      "tags": ["Building infrastructure with Dandelion and Plutus PBL"]
    },
    {
      "date": "2021-10-15",
      "number": 37,
      "youtubeId": "WSw_HACuiPI",
      "tags": [""]
    },
    {
      "date": "2021-10-08",
      "number": 36,
      "youtubeId": "-G8dq9qLj7M",
      "tags": ["Catalyst Fund 6 Proposals from the Gimablabs community"]
    },
    {
      "date": "2021-10-01",
      "number": 35,
      "youtubeId": "Z5sIPvcELU0",
      "tags": ["We're back from global Cardano Summits - what's next?"]
    },
    {
      "date": "2021-09-17",
      "number": 34,
      "youtubeId": "Ao5W_vGl_bc",
      "tags": ["Building Dandelion infrastructure: ArgoCD, homelab, and more"]
    },
    {
      "date": "2021-09-10",
      "number": 33,
      "youtubeId": "oKHvZWExpvI",
      "tags": ["We are in building mode"]
    },
    {
      "date": "2021-09-03",
      "number": 32,
      "youtubeId": "C7BgoJUw-YQ",
      "tags": ["Putting the gimbal token on hold"]
    },
    {
      "date": "2021-08-27",
      "number": 31,
      "youtubeId": "Fy_Rn0y1rls",
      "tags": ["What are we working on?"]
    },
    {
      "date": "2021-08-13",
      "number": 30,
      "youtubeId": "aGPtwVBtqT0",
      "tags": ["Celebrating Catalyst Fund 5 results!"]
    },
    {
      "date": "2021-08-06",
      "number": 29,
      "youtubeId": "91vMtLgbuPo",
      "tags": ["Our growing team"]
    },
    {
      "date": "2021-07-30",
      "number": 28,
      "youtubeId": "wa7UODKqqpw",
      "tags": [""]
    },
    {
      "date": "2021-07-23",
      "number": 27,
      "youtubeId": "do-rLvIxlWc",
      "tags": ["Catalyst Fund 5: Our Key Proposals"]
    },
    {
      "date": "2021-07-09",
      "number": 25,
      "youtubeId": "LnaCPqZ6TdY",
      "tags": [""]
    },
    {
      "date": "2021-07-02",
      "number": 24,
      "youtubeId": "fC7osR4htgA",
      "tags": ["Launch of Plutus Learning Group"]
    },
    {
      "date": "2021-06-25",
      "number": 23,
      "youtubeId": "ukW-bFFCNLY",
      "tags": ["Shout out to the Alonzo Blue Crew!"]
    },
    {
      "date": "2021-06-18",
      "number": 22,
      "youtubeId": "vub4Rz01QG8",
      "tags": ["Pushing our thinking"]
    },
    {
      "date": "2021-06-11",
      "number": 21,
      "youtubeId": "_QdzDi0hRcU",
      "tags": ["Our Catalyst Fund 4 Proposal: Building Network Capacity"]
    },
    {
      "date": "2021-06-04",
      "number": 20,
      "youtubeId": "5U81b6cGnrc",
      "tags": ["Welcoming new contributors"]
    },
    {
      "date": "2021-05-28",
      "number": 19,
      "youtubeId": "5vy3ORYQlBI",
      "tags": ["Shoutout to the Gimbalabs Playground Community"]
    },
    {
      "date": "2021-05-21",
      "number": 18,
      "youtubeId": "DWWUVCkwMvM",
      "tags": ["Keep Working"]
    },
    {
      "date": "2021-05-14",
      "number": 17,
      "youtubeId": "XftqAC9degc",
      "tags": ["Catalyst Fund 5 is underway!"]
    },
    {
      "date": "2021-05-07",
      "number": 16,
      "youtubeId": "MlUXxwOKqRM",
      "tags": ["Welcome Giovanni!"]
    },
    {
      "date": "2021-04-30",
      "number": 15,
      "youtubeId": "CxpLaON1lKs",
      "tags": ["Minting NFTs with Coding on Chain"]
    },
    {
      "date": "2021-04-23",
      "number": 14,
      "youtubeId": "GlhCz4P4m8A",
      "tags": ["Building mode"]
    },
    {
      "date": "2021-04-16",
      "number": 13,
      "youtubeId": "aRsXum8SVKA",
      "tags": ["Check out this logo"]
    },
    {
      "date": "2021-04-09",
      "number": 12,
      "youtubeId": "CWTAU3DZxsY",
      "tags": ["Catalyst Fund 5: Focused Projects"]
    },
    {
      "date": "2021-04-02",
      "number": 11,
      "youtubeId": "5sNPFW48htI",
      "tags": ["Congrats to Fund 3 Winners, and thanks IOHK for stopping by"]
    },
    {
      "date": "2021-03-26",
      "number": 10,
      "youtubeId": "zvVL380-udE",
      "tags": [""]
    },
    {
      "date": "2021-03-19",
      "number": 9,
      "youtubeId": "rcTZli2RCfw",
      "tags": ["Shoutout to Playground development crew for deep R&D"]
    },
    {
      "date": "2021-03-12",
      "number": 8,
      "youtubeId": "eWWlhf5Fz_Y",
      "tags": [""]
    },
    {
      "date": "2021-03-05",
      "number": 7,
      "youtubeId": "NvA3b6A1658",
      "tags": ["Welcome Kyle + thank you Sosha for running our Playground session!"]
    },
    {
      "date": "2021-02-26",
      "number": 6,
      "youtubeId": "yYFGH3gGHJQ",
      "tags": ["The early roots of Gimbalabs Playground"]
    },
    {
      "date": "2021-02-19",
      "number": 5,
      "youtubeId": "bKvFZ8KfAt0",
      "tags": ["Thank you to all who contributed to the first Gimbalabs Initiatives"]
    },
    {
      "date": "2021-02-12",
      "number": 4,
      "youtubeId": "iMwmskk3H_w",
      "tags": ["Gimbalabs Initiatives: Let's start tinkering"]
    },
    {
      "date": "2021-02-05",
      "number": 3,
      "youtubeId": "3ChL10wf03g",
      "tags": [""]
    },
    {
      "date": "2021-01-29",
      "number": 2,
      "youtubeId": "zetZvvNe-S0",
      "tags": ["Outlining our plans"]
    },
    {
      "date": "2021-01-22",
      "number": 1,
      "youtubeId": "rI79OzV53Ac",
      "tags": ["Hey, is this thing on?"]
    }
  ]
}
